<svg width="390" height="124" xmlns="http://www.w3.org/2000/svg">
  <!--
      This template requires Jt templater,
      https://github.com/3F/Jt

      The generated result can be found on the official page,
      https://github.com/3F
  -->
  <style>
    svg {
      font-family: -apple-system, BlinkMacSystemFont, "Segoe UI", Helvetica, Arial, sans-serif, "Apple Color Emoji", "Segoe UI Emoji";
      font-size: 14px;
      line-height: 1.45;
      color: var(--color-fg-default);
      /* background-color: var(--color-canvas-default) */
    }

    a {
      color: var(--color-accent-fg);
      text-decoration: none
    }

    a:hover {
      text-decoration: underline
    }

    small {
      font-size: 90%
    }

    ul,
    ol {
      padding-left: 0;
      margin-top: 0;
      margin-bottom: 0;
      margin-right:0;
    }

    ol ol,
    ul ol {
      list-style-type: lower-roman
    }

    ul ul ol,
    ul ol ol,
    ol ul ol,
    ol ol ol {
      list-style-type: lower-alpha
    }

    .mb-0 {
      margin-bottom: 0 !important
    }

    .f6 {
      font-size: 11px !important
    }

    .mr-2 {
      margin-right: 8px !important
    }

    .mr-3 {
      margin-right: 16px !important
    }

    .repo-language-color {
      position: relative;
      top: 0;
      display: inline-block;
      opacity: .9;
      width: 6px;
      height: 7px;
      border: 1px solid var(--color-primer-border-contrast);
      border-radius: 20%;
      margin-right: -0.2em;
    }

    .repo-language-dcontainer {
      position: relative;
      color: var(--color-neutral-emphasis-plus);
      margin: 4px;
      font-weight: 600;
    }

    .repo-language-description {
      position: absolute;
      top: -.01em;
      bottom: .01em;
      left: -.1em;
      /* color: var(--color-fg-on-emphasis); */
      color: rgba(0, 0, 0, 0);
      font-weight: 600;
      padding-left: 2px;
      padding-right: 2px;
      margin-left: -2px;
      /* margin-top: -1px; */
      border-radius: 10%;
      opacity: .4;
      border:1px outset;
    }

    .pinned-item-meta {
      display: inline-block;
    }

    .pinned-item-meta+.pinned-item-meta {
      margin-left: 10px;
    }

    .p-3 {
      padding: 2px !important
    }

    .d-flex {
      display: flex !important
    }

    .mt-2 {
      margin-top: 5px !important
    }

    .mb-3 {
      margin-bottom: 0 !important
    }

    .text-small {
      font-size: 12px !important
    }

    .text-bold {
      font-weight: 600 !important
    }

    .color-text-secondary {
      color: var(--color-fg-muted) !important
    }

    .flex-items-center {
      align-items: center !important
    }

    .box {

    }

    .box-github {
      background-color: var(--color-canvas-default);
      border-color: var(--color-border-default);
      border-style: solid;
      border-width: 1px;
      border-radius: 6px
    }

    .octicon {
      display: inline-block;
      overflow: visible !important;
      vertical-align: text-bottom;
      fill: var(--color-fg-muted) !important
    }

    .Link--muted {
      color: var(--color-fg-muted) !important
    }

    .Link--muted:hover {
      color: var(--color-accent-fg) !important;
      text-decoration: none
    }

    .Link--muted:hover [class*=color-text] {
      color: inherit !important
    }

    .Link--muted.filter-item.selected {
      color: var(--color-fg-on-emphasis) !important
    }

    :root {
      --color-canvas-default-transparent: rgba(255, 255, 255, 0);
      --color-topic-tag-border: rgba(0, 0, 0, 0);
      --color-overlay-shadow: 0 1px 3px rgba(27, 31, 36, 0.12), 0 8px 24px rgba(66, 74, 83, 0.12);
      --color-header-text: rgba(255, 255, 255, 0.7);
      --color-header-bg: #616b7c;
      --color-header-logo: #ffffff;
      --color-header-search-bg: #616b7c;
      --color-header-search-border: #57606a;
      --color-input-disabled-bg: rgba(175, 184, 193, 0.2);
      --color-fg-default: #616b7c;
      --color-fg-muted: #57606a;
      --color-fg-subtle: #6e7781;
      --color-fg-on-emphasis: #ffffff;
      --color-border-default: #d0d7de;
      --color-border-muted: hsla(210, 18%, 87%, 1);
      --color-border-subtle: rgba(27, 31, 36, 0.15);
      --color-neutral-emphasis-plus: #616b7c;
      --color-neutral-emphasis: #6e7781;
      --color-neutral-muted: rgba(175, 184, 193, 0.2);
      --color-neutral-subtle: rgba(234, 238, 242, 0.5);
      --color-accent-fg: #0969da;
      --color-accent-emphasis: #0969da;
      --color-accent-muted: rgba(84, 174, 255, 0.4);
      --color-accent-subtle: #ddf4ff;
    }

    .repo-stat {
      margin-left: auto; 
      margin-right: 0;
      text-align: center;
    }

    .repo-langs {
      margin-right: auto; 
      margin-left: 0;
    }

  </style>
  <g>
    <foreignObject width="390" height="124">
      <div xmlns="http://www.w3.org/1999/xhtml">

        <ol>
          <li>
            <div class="box p-3">
              <div>
                <div class="d-flex flex-items-center">

                  <svg xmlns="http://www.w3.org/2000/svg" aria-hidden="true" height="16" viewBox="0 0 16 16" version="1.1" width="16"
                    class="octicon mr-2 color-text-secondary">
                    <path fill-rule="evenodd"
                      
                        d="M2 2.5A2.5 2.5 0 014.5 0h8.75a.75.75 0 01.75.75v12.5a.75.75 0 01-.75.75h-2.5a.75.75 0 110-1.5h1.75v-2h-8a1 1 0 00-.714 1.7.75.75 0 01-1.072 1.05A2.495 2.495 0 012 11.5v-9zm10.5-1V9h-8c-.356 0-.694.074-1 .208V2.5a1 1 0 011-1h8zM5 12.25v3.25a.25.25 0 00.4.2l1.45-1.087a.25.25 0 01.3 0L8.6 15.7a.25.25 0 00.4-.2v-3.25a.25.25 0 00-.25-.25h-3.5a.25.25 0 00-.25.25z">
                      
                    </path>
                  </svg>

                  <span class="mr-2 repo-langs">
                    
                    
                      <span class="repo-language-color" style="background-color: #178600"></span>
                    
                      <span class="repo-language-color" style="background-color: #C1F12E"></span>
                    
                  </span>

                  <a class="repo-name text-bold mr-3" href="https://github.com/3F/MvsSln">
                    <span>MvsSln</span>
                  </a>

                  <span class="repo-stat pinned-item-meta Link--muted">
                    <svg xmlns="http://www.w3.org/2000/svg" aria-hidden="true" height="16" viewBox="0 0 16 16" version="1.1" width="16"
                      class="octicon">
                      <path fill-rule="evenodd"
                        d="M1.679 7.932c.412-.621 1.242-1.75 2.366-2.717C5.175 4.242 6.527 3.5 8 3.5c1.473 0 2.824.742 3.955 1.715 1.124.967 1.954 2.096 2.366 2.717a.119.119 0 010 .136c-.412.621-1.242 1.75-2.366 2.717C10.825 11.758 9.473 12.5 8 12.5c-1.473 0-2.824-.742-3.955-1.715C2.92 9.818 2.09 8.69 1.679 8.068a.119.119 0 010-.136zM8 2c-1.981 0-3.67.992-4.933 2.078C1.797 5.169.88 6.423.43 7.1a1.619 1.619 0 000 1.798c.45.678 1.367 1.932 2.637 3.024C4.329 13.008 6.019 14 8 14c1.981 0 3.67-.992 4.933-2.078 1.27-1.091 2.187-2.345 2.637-3.023a1.619 1.619 0 000-1.798c-.45-.678-1.367-1.932-2.637-3.023C11.671 2.992 9.981 2 8 2zm0 8a2 2 0 100-4 2 2 0 000 4z">
                      </path>
                    </svg>
                    <div>10</div>
                  </span>
                  <span class="repo-stat pinned-item-meta Link--muted">
                    <svg xmlns="http://www.w3.org/2000/svg" aria-label="forks" role="img" height="16" viewBox="0 0 16 16" version="1.1" width="16"
                      class="octicon">
                      <path fill-rule="evenodd"
                        d="M5 3.25a.75.75 0 11-1.5 0 .75.75 0 011.5 0zm0 2.122a2.25 2.25 0 10-1.5 0v.878A2.25 2.25 0 005.75 8.5h1.5v2.128a2.251 2.251 0 101.5 0V8.5h1.5a2.25 2.25 0 002.25-2.25v-.878a2.25 2.25 0 10-1.5 0v.878a.75.75 0 01-.75.75h-4.5A.75.75 0 015 6.25v-.878zm3.75 7.378a.75.75 0 11-1.5 0 .75.75 0 011.5 0zm3-8.75a.75.75 0 100-1.5.75.75 0 000 1.5z">
                      </path>
                    </svg>
                    <div>27</div>
                  </span>
                  <span class="repo-stat pinned-item-meta Link--muted text-bold">
                    <svg xmlns="http://www.w3.org/2000/svg" aria-label="stars" role="img" height="16" viewBox="0 0 16 16" version="1.1" width="16"
                      class="octicon">
                      <path fill-rule="evenodd"
                        d="M8 .25a.75.75 0 01.673.418l1.882 3.815 4.21.612a.75.75 0 01.416 1.279l-3.046 2.97.719 4.192a.75.75 0 01-1.088.791L8 12.347l-3.766 1.98a.75.75 0 01-1.088-.79l.72-4.194L.818 6.374a.75.75 0 01.416-1.28l4.21-.611L7.327.668A.75.75 0 018 .25zm0 2.445L6.615 5.5a.75.75 0 01-.564.41l-3.097.45 2.24 2.184a.75.75 0 01.216.664l-.528 3.084 2.769-1.456a.75.75 0 01.698 0l2.77 1.456-.53-3.084a.75.75 0 01.216-.664l2.24-2.183-3.096-.45a.75.75 0 01-.564-.41L8 2.694v.001z">
                      </path>
                    </svg>
                    <div>134</div>
                  </span>

                </div>

                <span class="mb-0 f6">
                  
                  
                    <span>C#</span>
                    <span class="repo-language-dcontainer">
                      <span class="repo-language-description" style="border-color: #178600">599.56k</span>
                      599.56k
                    </span>
                  
                    <span>Batchfile</span>
                    <span class="repo-language-dcontainer">
                      <span class="repo-language-description" style="border-color: #C1F12E">34.42k</span>
                      34.42k
                    </span>
                  
                </span>

                <p class="text-small mt-2 mb-3">
                  🧩 Customizable VisualStudio .sln parser with project support (.vcxproj, .csproj., …). Pluggable lightweight r/w handlers at runtime, and more …
                </p>

              </div>
            </div>
          </li>
        </ol>

      </div>
    </foreignObject>

  </g>
</svg>
